%YAML 1.1
%TAG !u! tag:unity3d.com,2011:
--- !u!1 &1502930452203607466
GameObject:
  m_ObjectHideFlags: 0
  m_CorrespondingSourceObject: {fileID: 0}
  m_PrefabInstance: {fileID: 0}
  m_PrefabAsset: {fileID: 0}
  serializedVersion: 6
  m_Component:
  - component: {fileID: 7254860704764804156}
  - component: {fileID: 5565347437169529289}
  - component: {fileID: 7146476609899147545}
  m_Layer: 0
  m_Name: Layer1
  m_TagString: Untagged
  m_Icon: {fileID: 0}
  m_NavMeshLayer: 0
  m_StaticEditorFlags: 0
  m_IsActive: 1
--- !u!4 &7254860704764804156
Transform:
  m_ObjectHideFlags: 0
  m_CorrespondingSourceObject: {fileID: 0}
  m_PrefabInstance: {fileID: 0}
  m_PrefabAsset: {fileID: 0}
  m_GameObject: {fileID: 1502930452203607466}
  m_LocalRotation: {x: -0, y: -0, z: -0, w: 1}
  m_LocalPosition: {x: 0, y: 0, z: 0}
  m_LocalScale: {x: 1, y: 1, z: 1}
  m_ConstrainProportionsScale: 0
  m_Children: []
  m_Father: {fileID: 8022508924050800881}
  m_RootOrder: 0
  m_LocalEulerAnglesHint: {x: 0, y: 0, z: 0}
--- !u!1839735485 &5565347437169529289
Tilemap:
  m_ObjectHideFlags: 0
  m_CorrespondingSourceObject: {fileID: 0}
  m_PrefabInstance: {fileID: 0}
  m_PrefabAsset: {fileID: 0}
  m_GameObject: {fileID: 1502930452203607466}
  m_Enabled: 1
  m_Tiles:
  - first: {x: 0, y: -10, z: 0}
    second:
      serializedVersion: 2
      m_TileIndex: 16
      m_TileSpriteIndex: 16
      m_TileMatrixIndex: 0
      m_TileColorIndex: 0
      m_TileObjectToInstantiateIndex: 65535
      dummyAlignment: 0
      m_AllTileFlags: 1073741825
  - first: {x: 1, y: -10, z: 0}
    second:
      serializedVersion: 2
      m_TileIndex: 102
      m_TileSpriteIndex: 102
      m_TileMatrixIndex: 0
      m_TileColorIndex: 0
      m_TileObjectToInstantiateIndex: 65535
      dummyAlignment: 0
      m_AllTileFlags: 1073741825
  - first: {x: 2, y: -10, z: 0}
    second:
      serializedVersion: 2
      m_TileIndex: 2
      m_TileSpriteIndex: 2
      m_TileMatrixIndex: 0
      m_TileColorIndex: 0
      m_TileObjectToInstantiateIndex: 65535
      dummyAlignment: 0
      m_AllTileFlags: 1073741825
  - first: {x: 0, y: -9, z: 0}
    second:
      serializedVersion: 2
      m_TileIndex: 93
      m_TileSpriteIndex: 93
      m_TileMatrixIndex: 0
      m_TileColorIndex: 0
      m_TileObjectToInstantiateIndex: 65535
      dummyAlignment: 0
      m_AllTileFlags: 1073741825
  - first: {x: 1, y: -9, z: 0}
    second:
      serializedVersion: 2
      m_TileIndex: 94
      m_TileSpriteIndex: 94
      m_TileMatrixIndex: 0
      m_TileColorIndex: 0
      m_TileObjectToInstantiateIndex: 65535
      dummyAlignment: 0
      m_AllTileFlags: 1073741825
  - first: {x: 2, y: -9, z: 0}
    second:
      serializedVersion: 2
      m_TileIndex: 95
      m_TileSpriteIndex: 95
      m_TileMatrixIndex: 0
      m_TileColorIndex: 0
      m_TileObjectToInstantiateIndex: 65535
      dummyAlignment: 0
      m_AllTileFlags: 1073741825
  - first: {x: 3, y: -9, z: 0}
    second:
      serializedVersion: 2
      m_TileIndex: 0
      m_TileSpriteIndex: 0
      m_TileMatrixIndex: 0
      m_TileColorIndex: 0
      m_TileObjectToInstantiateIndex: 65535
      dummyAlignment: 0
      m_AllTileFlags: 1073741825
  - first: {x: 4, y: -9, z: 0}
    second:
      serializedVersion: 2
      m_TileIndex: 96
      m_TileSpriteIndex: 96
      m_TileMatrixIndex: 0
      m_TileColorIndex: 0
      m_TileObjectToInstantiateIndex: 65535
      dummyAlignment: 0
      m_AllTileFlags: 1073741825
  - first: {x: 5, y: -9, z: 0}
    second:
      serializedVersion: 2
      m_TileIndex: 97
      m_TileSpriteIndex: 97
      m_TileMatrixIndex: 0
      m_TileColorIndex: 0
      m_TileObjectToInstantiateIndex: 65535
      dummyAlignment: 0
      m_AllTileFlags: 1073741825
  - first: {x: 6, y: -9, z: 0}
    second:
      serializedVersion: 2
      m_TileIndex: 98
      m_TileSpriteIndex: 98
      m_TileMatrixIndex: 0
      m_TileColorIndex: 0
      m_TileObjectToInstantiateIndex: 65535
      dummyAlignment: 0
      m_AllTileFlags: 1073741825
  - first: {x: 7, y: -9, z: 0}
    second:
      serializedVersion: 2
      m_TileIndex: 99
      m_TileSpriteIndex: 99
      m_TileMatrixIndex: 0
      m_TileColorIndex: 0
      m_TileObjectToInstantiateIndex: 65535
      dummyAlignment: 0
      m_AllTileFlags: 1073741825
  - first: {x: 8, y: -9, z: 0}
    second:
      serializedVersion: 2
      m_TileIndex: 100
      m_TileSpriteIndex: 100
      m_TileMatrixIndex: 0
      m_TileColorIndex: 0
      m_TileObjectToInstantiateIndex: 65535
      dummyAlignment: 0
      m_AllTileFlags: 1073741825
  - first: {x: 9, y: -9, z: 0}
    second:
      serializedVersion: 2
      m_TileIndex: 101
      m_TileSpriteIndex: 101
      m_TileMatrixIndex: 0
      m_TileColorIndex: 0
      m_TileObjectToInstantiateIndex: 65535
      dummyAlignment: 0
      m_AllTileFlags: 1073741825
  - first: {x: 0, y: -8, z: 0}
    second:
      serializedVersion: 2
      m_TileIndex: 83
      m_TileSpriteIndex: 83
      m_TileMatrixIndex: 0
      m_TileColorIndex: 0
      m_TileObjectToInstantiateIndex: 65535
      dummyAlignment: 0
      m_AllTileFlags: 1073741825
  - first: {x: 1, y: -8, z: 0}
    second:
      serializedVersion: 2
      m_TileIndex: 84
      m_TileSpriteIndex: 84
      m_TileMatrixIndex: 0
      m_TileColorIndex: 0
      m_TileObjectToInstantiateIndex: 65535
      dummyAlignment: 0
      m_AllTileFlags: 1073741825
  - first: {x: 2, y: -8, z: 0}
    second:
      serializedVersion: 2
      m_TileIndex: 85
      m_TileSpriteIndex: 85
      m_TileMatrixIndex: 0
      m_TileColorIndex: 0
      m_TileObjectToInstantiateIndex: 65535
      dummyAlignment: 0
      m_AllTileFlags: 1073741825
  - first: {x: 3, y: -8, z: 0}
    second:
      serializedVersion: 2
      m_TileIndex: 86
      m_TileSpriteIndex: 86
      m_TileMatrixIndex: 0
      m_TileColorIndex: 0
      m_TileObjectToInstantiateIndex: 65535
      dummyAlignment: 0
      m_AllTileFlags: 1073741825
  - first: {x: 4, y: -8, z: 0}
    second:
      serializedVersion: 2
      m_TileIndex: 87
      m_TileSpriteIndex: 87
      m_TileMatrixIndex: 0
      m_TileColorIndex: 0
      m_TileObjectToInstantiateIndex: 65535
      dummyAlignment: 0
      m_AllTileFlags: 1073741825
  - first: {x: 5, y: -8, z: 0}
    second:
      serializedVersion: 2
      m_TileIndex: 88
      m_TileSpriteIndex: 88
      m_TileMatrixIndex: 0
      m_TileColorIndex: 0
      m_TileObjectToInstantiateIndex: 65535
      dummyAlignment: 0
      m_AllTileFlags: 1073741825
  - first: {x: 6, y: -8, z: 0}
    second:
      serializedVersion: 2
      m_TileIndex: 89
      m_TileSpriteIndex: 89
      m_TileMatrixIndex: 0
      m_TileColorIndex: 0
      m_TileObjectToInstantiateIndex: 65535
      dummyAlignment: 0
      m_AllTileFlags: 1073741825
  - first: {x: 7, y: -8, z: 0}
    second:
      serializedVersion: 2
      m_TileIndex: 90
      m_TileSpriteIndex: 90
      m_TileMatrixIndex: 0
      m_TileColorIndex: 0
      m_TileObjectToInstantiateIndex: 65535
      dummyAlignment: 0
      m_AllTileFlags: 1073741825
  - first: {x: 8, y: -8, z: 0}
    second:
      serializedVersion: 2
      m_TileIndex: 91
      m_TileSpriteIndex: 91
      m_TileMatrixIndex: 0
      m_TileColorIndex: 0
      m_TileObjectToInstantiateIndex: 65535
      dummyAlignment: 0
      m_AllTileFlags: 1073741825
  - first: {x: 9, y: -8, z: 0}
    second:
      serializedVersion: 2
      m_TileIndex: 92
      m_TileSpriteIndex: 92
      m_TileMatrixIndex: 0
      m_TileColorIndex: 0
      m_TileObjectToInstantiateIndex: 65535
      dummyAlignment: 0
      m_AllTileFlags: 1073741825
  - first: {x: 0, y: -7, z: 0}
    second:
      serializedVersion: 2
      m_TileIndex: 74
      m_TileSpriteIndex: 74
      m_TileMatrixIndex: 0
      m_TileColorIndex: 0
      m_TileObjectToInstantiateIndex: 65535
      dummyAlignment: 0
      m_AllTileFlags: 1073741825
  - first: {x: 1, y: -7, z: 0}
    second:
      serializedVersion: 2
      m_TileIndex: 75
      m_TileSpriteIndex: 75
      m_TileMatrixIndex: 0
      m_TileColorIndex: 0
      m_TileObjectToInstantiateIndex: 65535
      dummyAlignment: 0
      m_AllTileFlags: 1073741825
  - first: {x: 2, y: -7, z: 0}
    second:
      serializedVersion: 2
      m_TileIndex: 76
      m_TileSpriteIndex: 76
      m_TileMatrixIndex: 0
      m_TileColorIndex: 0
      m_TileObjectToInstantiateIndex: 65535
      dummyAlignment: 0
      m_AllTileFlags: 1073741825
  - first: {x: 3, y: -7, z: 0}
    second:
      serializedVersion: 2
      m_TileIndex: 77
      m_TileSpriteIndex: 77
      m_TileMatrixIndex: 0
      m_TileColorIndex: 0
      m_TileObjectToInstantiateIndex: 65535
      dummyAlignment: 0
      m_AllTileFlags: 1073741825
  - first: {x: 4, y: -7, z: 0}
    second:
      serializedVersion: 2
      m_TileIndex: 78
      m_TileSpriteIndex: 78
      m_TileMatrixIndex: 0
      m_TileColorIndex: 0
      m_TileObjectToInstantiateIndex: 65535
      dummyAlignment: 0
      m_AllTileFlags: 1073741825
  - first: {x: 5, y: -7, z: 0}
    second:
      serializedVersion: 2
      m_TileIndex: 79
      m_TileSpriteIndex: 79
      m_TileMatrixIndex: 0
      m_TileColorIndex: 0
      m_TileObjectToInstantiateIndex: 65535
      dummyAlignment: 0
      m_AllTileFlags: 1073741825
  - first: {x: 6, y: -7, z: 0}
    second:
      serializedVersion: 2
      m_TileIndex: 80
      m_TileSpriteIndex: 80
      m_TileMatrixIndex: 0
      m_TileColorIndex: 0
      m_TileObjectToInstantiateIndex: 65535
      dummyAlignment: 0
      m_AllTileFlags: 1073741825
  - first: {x: 7, y: -7, z: 0}
    second:
      serializedVersion: 2
      m_TileIndex: 12
      m_TileSpriteIndex: 12
      m_TileMatrixIndex: 0
      m_TileColorIndex: 0
      m_TileObjectToInstantiateIndex: 65535
      dummyAlignment: 0
      m_AllTileFlags: 1073741825
  - first: {x: 8, y: -7, z: 0}
    second:
      serializedVersion: 2
      m_TileIndex: 81
      m_TileSpriteIndex: 81
      m_TileMatrixIndex: 0
      m_TileColorIndex: 0
      m_TileObjectToInstantiateIndex: 65535
      dummyAlignment: 0
      m_AllTileFlags: 1073741825
  - first: {x: 9, y: -7, z: 0}
    second:
      serializedVersion: 2
      m_TileIndex: 82
      m_TileSpriteIndex: 82
      m_TileMatrixIndex: 0
      m_TileColorIndex: 0
      m_TileObjectToInstantiateIndex: 65535
      dummyAlignment: 0
      m_AllTileFlags: 1073741825
  - first: {x: 0, y: -6, z: 0}
    second:
      serializedVersion: 2
      m_TileIndex: 64
      m_TileSpriteIndex: 64
      m_TileMatrixIndex: 0
      m_TileColorIndex: 0
      m_TileObjectToInstantiateIndex: 65535
      dummyAlignment: 0
      m_AllTileFlags: 1073741825
  - first: {x: 1, y: -6, z: 0}
    second:
      serializedVersion: 2
      m_TileIndex: 65
      m_TileSpriteIndex: 65
      m_TileMatrixIndex: 0
      m_TileColorIndex: 0
      m_TileObjectToInstantiateIndex: 65535
      dummyAlignment: 0
      m_AllTileFlags: 1073741825
  - first: {x: 2, y: -6, z: 0}
    second:
      serializedVersion: 2
      m_TileIndex: 66
      m_TileSpriteIndex: 66
      m_TileMatrixIndex: 0
      m_TileColorIndex: 0
      m_TileObjectToInstantiateIndex: 65535
      dummyAlignment: 0
      m_AllTileFlags: 1073741825
  - first: {x: 3, y: -6, z: 0}
    second:
      serializedVersion: 2
      m_TileIndex: 67
      m_TileSpriteIndex: 67
      m_TileMatrixIndex: 0
      m_TileColorIndex: 0
      m_TileObjectToInstantiateIndex: 65535
      dummyAlignment: 0
      m_AllTileFlags: 1073741825
  - first: {x: 4, y: -6, z: 0}
    second:
      serializedVersion: 2
      m_TileIndex: 68
      m_TileSpriteIndex: 68
      m_TileMatrixIndex: 0
      m_TileColorIndex: 0
      m_TileObjectToInstantiateIndex: 65535
      dummyAlignment: 0
      m_AllTileFlags: 1073741825
  - first: {x: 5, y: -6, z: 0}
    second:
      serializedVersion: 2
      m_TileIndex: 69
      m_TileSpriteIndex: 69
      m_TileMatrixIndex: 0
      m_TileColorIndex: 0
      m_TileObjectToInstantiateIndex: 65535
      dummyAlignment: 0
      m_AllTileFlags: 1073741825
  - first: {x: 6, y: -6, z: 0}
    second:
      serializedVersion: 2
      m_TileIndex: 70
      m_TileSpriteIndex: 70
      m_TileMatrixIndex: 0
      m_TileColorIndex: 0
      m_TileObjectToInstantiateIndex: 65535
      dummyAlignment: 0
      m_AllTileFlags: 1073741825
  - first: {x: 7, y: -6, z: 0}
    second:
      serializedVersion: 2
      m_TileIndex: 71
      m_TileSpriteIndex: 71
      m_TileMatrixIndex: 0
      m_TileColorIndex: 0
      m_TileObjectToInstantiateIndex: 65535
      dummyAlignment: 0
      m_AllTileFlags: 1073741825
  - first: {x: 8, y: -6, z: 0}
    second:
      serializedVersion: 2
      m_TileIndex: 72
      m_TileSpriteIndex: 72
      m_TileMatrixIndex: 0
      m_TileColorIndex: 0
      m_TileObjectToInstantiateIndex: 65535
      dummyAlignment: 0
      m_AllTileFlags: 1073741825
  - first: {x: 9, y: -6, z: 0}
    second:
      serializedVersion: 2
      m_TileIndex: 73
      m_TileSpriteIndex: 73
      m_TileMatrixIndex: 0
      m_TileColorIndex: 0
      m_TileObjectToInstantiateIndex: 65535
      dummyAlignment: 0
      m_AllTileFlags: 1073741825
  - first: {x: 0, y: -5, z: 0}
    second:
      serializedVersion: 2
      m_TileIndex: 6
      m_TileSpriteIndex: 6
      m_TileMatrixIndex: 0
      m_TileColorIndex: 0
      m_TileObjectToInstantiateIndex: 65535
      dummyAlignment: 0
      m_AllTileFlags: 1073741825
  - first: {x: 1, y: -5, z: 0}
    second:
      serializedVersion: 2
      m_TileIndex: 57
      m_TileSpriteIndex: 57
      m_TileMatrixIndex: 0
      m_TileColorIndex: 0
      m_TileObjectToInstantiateIndex: 65535
      dummyAlignment: 0
      m_AllTileFlags: 1073741825
  - first: {x: 2, y: -5, z: 0}
    second:
      serializedVersion: 2
      m_TileIndex: 58
      m_TileSpriteIndex: 58
      m_TileMatrixIndex: 0
      m_TileColorIndex: 0
      m_TileObjectToInstantiateIndex: 65535
      dummyAlignment: 0
      m_AllTileFlags: 1073741825
  - first: {x: 3, y: -5, z: 0}
    second:
      serializedVersion: 2
      m_TileIndex: 11
      m_TileSpriteIndex: 11
      m_TileMatrixIndex: 0
      m_TileColorIndex: 0
      m_TileObjectToInstantiateIndex: 65535
      dummyAlignment: 0
      m_AllTileFlags: 1073741825
  - first: {x: 4, y: -5, z: 0}
    second:
      serializedVersion: 2
      m_TileIndex: 59
      m_TileSpriteIndex: 59
      m_TileMatrixIndex: 0
      m_TileColorIndex: 0
      m_TileObjectToInstantiateIndex: 65535
      dummyAlignment: 0
      m_AllTileFlags: 1073741825
  - first: {x: 5, y: -5, z: 0}
    second:
      serializedVersion: 2
      m_TileIndex: 60
      m_TileSpriteIndex: 60
      m_TileMatrixIndex: 0
      m_TileColorIndex: 0
      m_TileObjectToInstantiateIndex: 65535
      dummyAlignment: 0
      m_AllTileFlags: 1073741825
  - first: {x: 6, y: -5, z: 0}
    second:
      serializedVersion: 2
      m_TileIndex: 61
      m_TileSpriteIndex: 61
      m_TileMatrixIndex: 0
      m_TileColorIndex: 0
      m_TileObjectToInstantiateIndex: 65535
      dummyAlignment: 0
      m_AllTileFlags: 1073741825
  - first: {x: 7, y: -5, z: 0}
    second:
      serializedVersion: 2
      m_TileIndex: 62
      m_TileSpriteIndex: 62
      m_TileMatrixIndex: 0
      m_TileColorIndex: 0
      m_TileObjectToInstantiateIndex: 65535
      dummyAlignment: 0
      m_AllTileFlags: 1073741825
  - first: {x: 8, y: -5, z: 0}
    second:
      serializedVersion: 2
      m_TileIndex: 63
      m_TileSpriteIndex: 63
      m_TileMatrixIndex: 0
      m_TileColorIndex: 0
      m_TileObjectToInstantiateIndex: 65535
      dummyAlignment: 0
      m_AllTileFlags: 1073741825
  - first: {x: 9, y: -5, z: 0}
    second:
      serializedVersion: 2
      m_TileIndex: 15
      m_TileSpriteIndex: 15
      m_TileMatrixIndex: 0
      m_TileColorIndex: 0
      m_TileObjectToInstantiateIndex: 65535
      dummyAlignment: 0
      m_AllTileFlags: 1073741825
  - first: {x: 0, y: -4, z: 0}
    second:
      serializedVersion: 2
      m_TileIndex: 9
      m_TileSpriteIndex: 9
      m_TileMatrixIndex: 0
      m_TileColorIndex: 0
      m_TileObjectToInstantiateIndex: 65535
      dummyAlignment: 0
      m_AllTileFlags: 1073741825
  - first: {x: 1, y: -4, z: 0}
    second:
      serializedVersion: 2
      m_TileIndex: 3
      m_TileSpriteIndex: 3
      m_TileMatrixIndex: 0
      m_TileColorIndex: 0
      m_TileObjectToInstantiateIndex: 65535
      dummyAlignment: 0
      m_AllTileFlags: 1073741825
  - first: {x: 2, y: -4, z: 0}
    second:
      serializedVersion: 2
      m_TileIndex: 51
      m_TileSpriteIndex: 51
      m_TileMatrixIndex: 0
      m_TileColorIndex: 0
      m_TileObjectToInstantiateIndex: 65535
      dummyAlignment: 0
      m_AllTileFlags: 1073741825
  - first: {x: 3, y: -4, z: 0}
    second:
      serializedVersion: 2
      m_TileIndex: 17
      m_TileSpriteIndex: 17
      m_TileMatrixIndex: 0
      m_TileColorIndex: 0
      m_TileObjectToInstantiateIndex: 65535
      dummyAlignment: 0
      m_AllTileFlags: 1073741825
  - first: {x: 4, y: -4, z: 0}
    second:
      serializedVersion: 2
      m_TileIndex: 52
      m_TileSpriteIndex: 52
      m_TileMatrixIndex: 0
      m_TileColorIndex: 0
      m_TileObjectToInstantiateIndex: 65535
      dummyAlignment: 0
      m_AllTileFlags: 1073741825
  - first: {x: 5, y: -4, z: 0}
    second:
      serializedVersion: 2
      m_TileIndex: 10
      m_TileSpriteIndex: 10
      m_TileMatrixIndex: 0
      m_TileColorIndex: 0
      m_TileObjectToInstantiateIndex: 65535
      dummyAlignment: 0
      m_AllTileFlags: 1073741825
  - first: {x: 6, y: -4, z: 0}
    second:
      serializedVersion: 2
      m_TileIndex: 53
      m_TileSpriteIndex: 53
      m_TileMatrixIndex: 0
      m_TileColorIndex: 0
      m_TileObjectToInstantiateIndex: 65535
      dummyAlignment: 0
      m_AllTileFlags: 1073741825
  - first: {x: 7, y: -4, z: 0}
    second:
      serializedVersion: 2
      m_TileIndex: 54
      m_TileSpriteIndex: 54
      m_TileMatrixIndex: 0
      m_TileColorIndex: 0
      m_TileObjectToInstantiateIndex: 65535
      dummyAlignment: 0
      m_AllTileFlags: 1073741825
  - first: {x: 8, y: -4, z: 0}
    second:
      serializedVersion: 2
      m_TileIndex: 55
      m_TileSpriteIndex: 55
      m_TileMatrixIndex: 0
      m_TileColorIndex: 0
      m_TileObjectToInstantiateIndex: 65535
      dummyAlignment: 0
      m_AllTileFlags: 1073741825
  - first: {x: 9, y: -4, z: 0}
    second:
      serializedVersion: 2
      m_TileIndex: 56
      m_TileSpriteIndex: 56
      m_TileMatrixIndex: 0
      m_TileColorIndex: 0
      m_TileObjectToInstantiateIndex: 65535
      dummyAlignment: 0
      m_AllTileFlags: 1073741825
  - first: {x: 0, y: -3, z: 0}
    second:
      serializedVersion: 2
      m_TileIndex: 42
      m_TileSpriteIndex: 42
      m_TileMatrixIndex: 0
      m_TileColorIndex: 0
      m_TileObjectToInstantiateIndex: 65535
      dummyAlignment: 0
      m_AllTileFlags: 1073741825
  - first: {x: 1, y: -3, z: 0}
    second:
      serializedVersion: 2
      m_TileIndex: 43
      m_TileSpriteIndex: 43
      m_TileMatrixIndex: 0
      m_TileColorIndex: 0
      m_TileObjectToInstantiateIndex: 65535
      dummyAlignment: 0
      m_AllTileFlags: 1073741825
  - first: {x: 2, y: -3, z: 0}
    second:
      serializedVersion: 2
      m_TileIndex: 44
      m_TileSpriteIndex: 44
      m_TileMatrixIndex: 0
      m_TileColorIndex: 0
      m_TileObjectToInstantiateIndex: 65535
      dummyAlignment: 0
      m_AllTileFlags: 1073741825
  - first: {x: 3, y: -3, z: 0}
    second:
      serializedVersion: 2
      m_TileIndex: 45
      m_TileSpriteIndex: 45
      m_TileMatrixIndex: 0
      m_TileColorIndex: 0
      m_TileObjectToInstantiateIndex: 65535
      dummyAlignment: 0
      m_AllTileFlags: 1073741825
  - first: {x: 4, y: -3, z: 0}
    second:
      serializedVersion: 2
      m_TileIndex: 46
      m_TileSpriteIndex: 46
      m_TileMatrixIndex: 0
      m_TileColorIndex: 0
      m_TileObjectToInstantiateIndex: 65535
      dummyAlignment: 0
      m_AllTileFlags: 1073741825
  - first: {x: 5, y: -3, z: 0}
    second:
      serializedVersion: 2
      m_TileIndex: 47
      m_TileSpriteIndex: 47
      m_TileMatrixIndex: 0
      m_TileColorIndex: 0
      m_TileObjectToInstantiateIndex: 65535
      dummyAlignment: 0
      m_AllTileFlags: 1073741825
  - first: {x: 6, y: -3, z: 0}
    second:
      serializedVersion: 2
      m_TileIndex: 48
      m_TileSpriteIndex: 48
      m_TileMatrixIndex: 0
      m_TileColorIndex: 0
      m_TileObjectToInstantiateIndex: 65535
      dummyAlignment: 0
      m_AllTileFlags: 1073741825
  - first: {x: 7, y: -3, z: 0}
    second:
      serializedVersion: 2
      m_TileIndex: 49
      m_TileSpriteIndex: 49
      m_TileMatrixIndex: 0
      m_TileColorIndex: 0
      m_TileObjectToInstantiateIndex: 65535
      dummyAlignment: 0
      m_AllTileFlags: 1073741825
  - first: {x: 8, y: -3, z: 0}
    second:
      serializedVersion: 2
      m_TileIndex: 50
      m_TileSpriteIndex: 50
      m_TileMatrixIndex: 0
      m_TileColorIndex: 0
      m_TileObjectToInstantiateIndex: 65535
      dummyAlignment: 0
      m_AllTileFlags: 1073741825
  - first: {x: 9, y: -3, z: 0}
    second:
      serializedVersion: 2
      m_TileIndex: 7
      m_TileSpriteIndex: 7
      m_TileMatrixIndex: 0
      m_TileColorIndex: 0
      m_TileObjectToInstantiateIndex: 65535
      dummyAlignment: 0
      m_AllTileFlags: 1073741825
  - first: {x: 0, y: -2, z: 0}
    second:
      serializedVersion: 2
      m_TileIndex: 32
      m_TileSpriteIndex: 32
      m_TileMatrixIndex: 0
      m_TileColorIndex: 0
      m_TileObjectToInstantiateIndex: 65535
      dummyAlignment: 0
      m_AllTileFlags: 1073741825
  - first: {x: 1, y: -2, z: 0}
    second:
      serializedVersion: 2
      m_TileIndex: 33
      m_TileSpriteIndex: 33
      m_TileMatrixIndex: 0
      m_TileColorIndex: 0
      m_TileObjectToInstantiateIndex: 65535
      dummyAlignment: 0
      m_AllTileFlags: 1073741825
  - first: {x: 2, y: -2, z: 0}
    second:
      serializedVersion: 2
      m_TileIndex: 34
      m_TileSpriteIndex: 34
      m_TileMatrixIndex: 0
      m_TileColorIndex: 0
      m_TileObjectToInstantiateIndex: 65535
      dummyAlignment: 0
      m_AllTileFlags: 1073741825
  - first: {x: 3, y: -2, z: 0}
    second:
      serializedVersion: 2
      m_TileIndex: 35
      m_TileSpriteIndex: 35
      m_TileMatrixIndex: 0
      m_TileColorIndex: 0
      m_TileObjectToInstantiateIndex: 65535
      dummyAlignment: 0
      m_AllTileFlags: 1073741825
  - first: {x: 4, y: -2, z: 0}
    second:
      serializedVersion: 2
      m_TileIndex: 36
      m_TileSpriteIndex: 36
      m_TileMatrixIndex: 0
      m_TileColorIndex: 0
      m_TileObjectToInstantiateIndex: 65535
      dummyAlignment: 0
      m_AllTileFlags: 1073741825
  - first: {x: 5, y: -2, z: 0}
    second:
      serializedVersion: 2
      m_TileIndex: 37
      m_TileSpriteIndex: 37
      m_TileMatrixIndex: 0
      m_TileColorIndex: 0
      m_TileObjectToInstantiateIndex: 65535
      dummyAlignment: 0
      m_AllTileFlags: 1073741825
  - first: {x: 6, y: -2, z: 0}
    second:
      serializedVersion: 2
      m_TileIndex: 38
      m_TileSpriteIndex: 38
      m_TileMatrixIndex: 0
      m_TileColorIndex: 0
      m_TileObjectToInstantiateIndex: 65535
      dummyAlignment: 0
      m_AllTileFlags: 1073741825
  - first: {x: 7, y: -2, z: 0}
    second:
      serializedVersion: 2
      m_TileIndex: 39
      m_TileSpriteIndex: 39
      m_TileMatrixIndex: 0
      m_TileColorIndex: 0
      m_TileObjectToInstantiateIndex: 65535
      dummyAlignment: 0
      m_AllTileFlags: 1073741825
  - first: {x: 8, y: -2, z: 0}
    second:
      serializedVersion: 2
      m_TileIndex: 40
      m_TileSpriteIndex: 40
      m_TileMatrixIndex: 0
      m_TileColorIndex: 0
      m_TileObjectToInstantiateIndex: 65535
      dummyAlignment: 0
      m_AllTileFlags: 1073741825
  - first: {x: 9, y: -2, z: 0}
    second:
      serializedVersion: 2
      m_TileIndex: 41
      m_TileSpriteIndex: 41
      m_TileMatrixIndex: 0
      m_TileColorIndex: 0
      m_TileObjectToInstantiateIndex: 65535
      dummyAlignment: 0
      m_AllTileFlags: 1073741825
  - first: {x: 0, y: -1, z: 0}
    second:
      serializedVersion: 2
      m_TileIndex: 4
      m_TileSpriteIndex: 4
      m_TileMatrixIndex: 0
      m_TileColorIndex: 0
      m_TileObjectToInstantiateIndex: 65535
      dummyAlignment: 0
      m_AllTileFlags: 1073741825
  - first: {x: 1, y: -1, z: 0}
    second:
      serializedVersion: 2
      m_TileIndex: 25
      m_TileSpriteIndex: 25
      m_TileMatrixIndex: 0
      m_TileColorIndex: 0
      m_TileObjectToInstantiateIndex: 65535
      dummyAlignment: 0
      m_AllTileFlags: 1073741825
  - first: {x: 2, y: -1, z: 0}
    second:
      serializedVersion: 2
      m_TileIndex: 26
      m_TileSpriteIndex: 26
      m_TileMatrixIndex: 0
      m_TileColorIndex: 0
      m_TileObjectToInstantiateIndex: 65535
      dummyAlignment: 0
      m_AllTileFlags: 1073741825
  - first: {x: 3, y: -1, z: 0}
    second:
      serializedVersion: 2
      m_TileIndex: 27
      m_TileSpriteIndex: 27
      m_TileMatrixIndex: 0
      m_TileColorIndex: 0
      m_TileObjectToInstantiateIndex: 65535
      dummyAlignment: 0
      m_AllTileFlags: 1073741825
  - first: {x: 4, y: -1, z: 0}
    second:
      serializedVersion: 2
      m_TileIndex: 28
      m_TileSpriteIndex: 28
      m_TileMatrixIndex: 0
      m_TileColorIndex: 0
      m_TileObjectToInstantiateIndex: 65535
      dummyAlignment: 0
      m_AllTileFlags: 1073741825
  - first: {x: 5, y: -1, z: 0}
    second:
      serializedVersion: 2
      m_TileIndex: 5
      m_TileSpriteIndex: 5
      m_TileMatrixIndex: 0
      m_TileColorIndex: 0
      m_TileObjectToInstantiateIndex: 65535
      dummyAlignment: 0
      m_AllTileFlags: 1073741825
  - first: {x: 6, y: -1, z: 0}
    second:
      serializedVersion: 2
      m_TileIndex: 29
      m_TileSpriteIndex: 29
      m_TileMatrixIndex: 0
      m_TileColorIndex: 0
      m_TileObjectToInstantiateIndex: 65535
      dummyAlignment: 0
      m_AllTileFlags: 1073741825
  - first: {x: 7, y: -1, z: 0}
    second:
      serializedVersion: 2
      m_TileIndex: 30
      m_TileSpriteIndex: 30
      m_TileMatrixIndex: 0
      m_TileColorIndex: 0
      m_TileObjectToInstantiateIndex: 65535
      dummyAlignment: 0
      m_AllTileFlags: 1073741825
  - first: {x: 8, y: -1, z: 0}
    second:
      serializedVersion: 2
      m_TileIndex: 1
      m_TileSpriteIndex: 1
      m_TileMatrixIndex: 0
      m_TileColorIndex: 0
      m_TileObjectToInstantiateIndex: 65535
      dummyAlignment: 0
      m_AllTileFlags: 1073741825
  - first: {x: 9, y: -1, z: 0}
    second:
      serializedVersion: 2
      m_TileIndex: 31
      m_TileSpriteIndex: 31
      m_TileMatrixIndex: 0
      m_TileColorIndex: 0
      m_TileObjectToInstantiateIndex: 65535
      dummyAlignment: 0
      m_AllTileFlags: 1073741825
  - first: {x: 0, y: 0, z: 0}
    second:
      serializedVersion: 2
      m_TileIndex: 13
      m_TileSpriteIndex: 13
      m_TileMatrixIndex: 0
      m_TileColorIndex: 0
      m_TileObjectToInstantiateIndex: 65535
      dummyAlignment: 0
      m_AllTileFlags: 1073741825
  - first: {x: 1, y: 0, z: 0}
    second:
      serializedVersion: 2
      m_TileIndex: 18
      m_TileSpriteIndex: 18
      m_TileMatrixIndex: 0
      m_TileColorIndex: 0
      m_TileObjectToInstantiateIndex: 65535
      dummyAlignment: 0
      m_AllTileFlags: 1073741825
  - first: {x: 2, y: 0, z: 0}
    second:
      serializedVersion: 2
      m_TileIndex: 14
      m_TileSpriteIndex: 14
      m_TileMatrixIndex: 0
      m_TileColorIndex: 0
      m_TileObjectToInstantiateIndex: 65535
      dummyAlignment: 0
      m_AllTileFlags: 1073741825
  - first: {x: 3, y: 0, z: 0}
    second:
      serializedVersion: 2
      m_TileIndex: 19
      m_TileSpriteIndex: 19
      m_TileMatrixIndex: 0
      m_TileColorIndex: 0
      m_TileObjectToInstantiateIndex: 65535
      dummyAlignment: 0
      m_AllTileFlags: 1073741825
  - first: {x: 4, y: 0, z: 0}
    second:
      serializedVersion: 2
      m_TileIndex: 20
      m_TileSpriteIndex: 20
      m_TileMatrixIndex: 0
      m_TileColorIndex: 0
      m_TileObjectToInstantiateIndex: 65535
      dummyAlignment: 0
      m_AllTileFlags: 1073741825
  - first: {x: 5, y: 0, z: 0}
    second:
      serializedVersion: 2
      m_TileIndex: 8
      m_TileSpriteIndex: 8
      m_TileMatrixIndex: 0
      m_TileColorIndex: 0
      m_TileObjectToInstantiateIndex: 65535
      dummyAlignment: 0
      m_AllTileFlags: 1073741825
  - first: {x: 6, y: 0, z: 0}
    second:
      serializedVersion: 2
      m_TileIndex: 21
      m_TileSpriteIndex: 21
      m_TileMatrixIndex: 0
      m_TileColorIndex: 0
      m_TileObjectToInstantiateIndex: 65535
      dummyAlignment: 0
      m_AllTileFlags: 1073741825
  - first: {x: 7, y: 0, z: 0}
    second:
      serializedVersion: 2
      m_TileIndex: 22
      m_TileSpriteIndex: 22
      m_TileMatrixIndex: 0
      m_TileColorIndex: 0
      m_TileObjectToInstantiateIndex: 65535
      dummyAlignment: 0
      m_AllTileFlags: 1073741825
  - first: {x: 8, y: 0, z: 0}
    second:
      serializedVersion: 2
      m_TileIndex: 23
      m_TileSpriteIndex: 23
      m_TileMatrixIndex: 0
      m_TileColorIndex: 0
      m_TileObjectToInstantiateIndex: 65535
      dummyAlignment: 0
      m_AllTileFlags: 1073741825
  - first: {x: 9, y: 0, z: 0}
    second:
      serializedVersion: 2
      m_TileIndex: 24
      m_TileSpriteIndex: 24
      m_TileMatrixIndex: 0
      m_TileColorIndex: 0
      m_TileObjectToInstantiateIndex: 65535
      dummyAlignment: 0
      m_AllTileFlags: 1073741825
  m_AnimatedTiles: {}
  m_TileAssetArray:
  - m_RefCount: 1
    m_Data: {fileID: 11400000, guid: f0d456723dc3cc442b12dcd6f67b00df, type: 2}
  - m_RefCount: 1
    m_Data: {fileID: 11400000, guid: dd3ac90253c50144fb37d8edd1916266, type: 2}
  - m_RefCount: 1
    m_Data: {fileID: 11400000, guid: 5ca439adddc90c44690fe20fe31d66c1, type: 2}
  - m_RefCount: 1
    m_Data: {fileID: 11400000, guid: 2f11a82ddc0806f4c8edd98ff19ee76f, type: 2}
  - m_RefCount: 1
    m_Data: {fileID: 11400000, guid: 6af88f4da8a941140b034892993c598a, type: 2}
  - m_RefCount: 1
    m_Data: {fileID: 11400000, guid: 17d7edc02b66b744e838c00aefd30ff7, type: 2}
  - m_RefCount: 1
    m_Data: {fileID: 11400000, guid: 02b7be88bdd893245b3f9746c9a37060, type: 2}
  - m_RefCount: 1
    m_Data: {fileID: 11400000, guid: 38d7d52943d7b5547af7eba7931da613, type: 2}
  - m_RefCount: 1
    m_Data: {fileID: 11400000, guid: 0ff1a73d9e543804b93148c51ba421cd, type: 2}
  - m_RefCount: 1
    m_Data: {fileID: 11400000, guid: a87965bd37abea5408754992da1a52da, type: 2}
  - m_RefCount: 1
    m_Data: {fileID: 11400000, guid: bc58d22a01ddc9a46928017accd2d5e2, type: 2}
  - m_RefCount: 1
    m_Data: {fileID: 11400000, guid: 58f2dd5072634ef4594242bc9e87b4e4, type: 2}
  - m_RefCount: 1
    m_Data: {fileID: 11400000, guid: 33051dcc82053b14baca2c458486efbc, type: 2}
  - m_RefCount: 1
    m_Data: {fileID: 11400000, guid: 99d339c029099c14e92eb5f2d29f087c, type: 2}
  - m_RefCount: 1
    m_Data: {fileID: 11400000, guid: fc811caf2a143b34585f3935cb6efe56, type: 2}
  - m_RefCount: 1
    m_Data: {fileID: 11400000, guid: 94954a517993e9e44b66965ff9bef0a1, type: 2}
  - m_RefCount: 1
    m_Data: {fileID: 11400000, guid: 9292dff7b27e40648b344109e8352588, type: 2}
  - m_RefCount: 1
    m_Data: {fileID: 11400000, guid: 752d81511533ab24f80c0148bfb9b1d0, type: 2}
  - m_RefCount: 1
    m_Data: {fileID: 11400000, guid: d0411d264a7dd86458b46d6e381d84b9, type: 2}
  - m_RefCount: 1
    m_Data: {fileID: 11400000, guid: 7b432e2fcc7db8c4fb2db4317732ef90, type: 2}
  - m_RefCount: 1
    m_Data: {fileID: 11400000, guid: b6fc661bf30b34848a3605dff46f769f, type: 2}
  - m_RefCount: 1
    m_Data: {fileID: 11400000, guid: c047c45754dfaff4fb59a55244c5570a, type: 2}
  - m_RefCount: 1
    m_Data: {fileID: 11400000, guid: ceb687bd8de95a64395902bdb115d531, type: 2}
  - m_RefCount: 1
    m_Data: {fileID: 11400000, guid: 3f4ee60c533b90141a5dc189d925e1a3, type: 2}
  - m_RefCount: 1
    m_Data: {fileID: 11400000, guid: ca37149d4f944ae4aa3e3ad2f64a2329, type: 2}
  - m_RefCount: 1
    m_Data: {fileID: 11400000, guid: 7b42a58d9a2ac9846ac1436eb67fdcd5, type: 2}
  - m_RefCount: 1
    m_Data: {fileID: 11400000, guid: c4c02f18044f2904aaf3f83daee0d411, type: 2}
  - m_RefCount: 1
    m_Data: {fileID: 11400000, guid: 32644fe98cd96a9458d54127e88d93c3, type: 2}
  - m_RefCount: 1
    m_Data: {fileID: 11400000, guid: 56e468ab2d146a54eaebbabe763cb966, type: 2}
  - m_RefCount: 1
    m_Data: {fileID: 11400000, guid: 1700c49abcc1e8f45bf38cfba94a73df, type: 2}
  - m_RefCount: 1
    m_Data: {fileID: 11400000, guid: b18cae0bbf8cb624b91763857520b262, type: 2}
  - m_RefCount: 1
    m_Data: {fileID: 11400000, guid: 9b965ea26b209744cb668a5e04cf6721, type: 2}
  - m_RefCount: 1
    m_Data: {fileID: 11400000, guid: c2a4a360bf2ac064ca687af2edc84b02, type: 2}
  - m_RefCount: 1
    m_Data: {fileID: 11400000, guid: fc1572defabc1d84db9cde71bd034d3b, type: 2}
  - m_RefCount: 1
    m_Data: {fileID: 11400000, guid: bcb842e6563cafa4f898b20eadcebb78, type: 2}
  - m_RefCount: 1
    m_Data: {fileID: 11400000, guid: 0623f3e0c17e5e746b37c538c5a7906a, type: 2}
  - m_RefCount: 1
    m_Data: {fileID: 11400000, guid: d62e139e085be9047bdb37daf6e246b5, type: 2}
  - m_RefCount: 1
    m_Data: {fileID: 11400000, guid: ede5525350a5ded48baf3571082f941e, type: 2}
  - m_RefCount: 1
    m_Data: {fileID: 11400000, guid: 32ae44423f4d75f428a0ea6dc719e6b1, type: 2}
  - m_RefCount: 1
    m_Data: {fileID: 11400000, guid: 2437aa8e416e99543b02d8ab5c675e73, type: 2}
  - m_RefCount: 1
    m_Data: {fileID: 11400000, guid: ffd454b37830067468199fbf172f863a, type: 2}
  - m_RefCount: 1
    m_Data: {fileID: 11400000, guid: d5900b36131ecc64cb97447d70b09332, type: 2}
  - m_RefCount: 1
    m_Data: {fileID: 11400000, guid: ddacb947046edb44aa75e71df74fb969, type: 2}
  - m_RefCount: 1
    m_Data: {fileID: 11400000, guid: bdb26b57351ccd04d93f9b719416ea1a, type: 2}
  - m_RefCount: 1
    m_Data: {fileID: 11400000, guid: e82e992781f98434c8b766bc94f3938c, type: 2}
  - m_RefCount: 1
    m_Data: {fileID: 11400000, guid: 5f3042c0ede656040aae51ae015c7c4b, type: 2}
  - m_RefCount: 1
    m_Data: {fileID: 11400000, guid: 02a026ed47c54ee48b659138b579a1fe, type: 2}
  - m_RefCount: 1
    m_Data: {fileID: 11400000, guid: 06ff43799fc16a84a88e54895a4292f3, type: 2}
  - m_RefCount: 1
    m_Data: {fileID: 11400000, guid: bf70b71104144fe498d28eeb23fdf543, type: 2}
  - m_RefCount: 1
    m_Data: {fileID: 11400000, guid: 314366113484f134cb886ff05b3694b2, type: 2}
  - m_RefCount: 1
    m_Data: {fileID: 11400000, guid: a228d765eb03e434a82c6b8becf2d77e, type: 2}
  - m_RefCount: 1
    m_Data: {fileID: 11400000, guid: 05255d573474dbd47a6ef0247e274c0c, type: 2}
  - m_RefCount: 1
    m_Data: {fileID: 11400000, guid: 606774e761ba10c458c3f69f6e445e71, type: 2}
  - m_RefCount: 1
    m_Data: {fileID: 11400000, guid: 4ace1a43520d89d47b4ec8154fea3756, type: 2}
  - m_RefCount: 1
    m_Data: {fileID: 11400000, guid: 334b223c98bd5254eade9c7dbe1ba413, type: 2}
  - m_RefCount: 1
    m_Data: {fileID: 11400000, guid: 31de0836d5571ea4992637ca45c42758, type: 2}
  - m_RefCount: 1
    m_Data: {fileID: 11400000, guid: 1e40e3fd2a4b10749bc0b2ef7ec5794a, type: 2}
  - m_RefCount: 1
    m_Data: {fileID: 11400000, guid: 48d29e3efb90fcd4cb61a1e283b91c42, type: 2}
  - m_RefCount: 1
    m_Data: {fileID: 11400000, guid: f0f22d04b1a5b0543846b536920bd8c1, type: 2}
  - m_RefCount: 1
    m_Data: {fileID: 11400000, guid: e2cc636fc4752394c8a62e3197f6f984, type: 2}
  - m_RefCount: 1
    m_Data: {fileID: 11400000, guid: 4059be676279d564291c3e69106dd040, type: 2}
  - m_RefCount: 1
    m_Data: {fileID: 11400000, guid: f2127b8b67a3c3c4391d82065f550249, type: 2}
  - m_RefCount: 1
    m_Data: {fileID: 11400000, guid: 60c0d6ff63436fd4abd273a144115857, type: 2}
  - m_RefCount: 1
    m_Data: {fileID: 11400000, guid: 9fd5854f82e97c64a843777ac16e9194, type: 2}
  - m_RefCount: 1
    m_Data: {fileID: 11400000, guid: d123872061e4cf24ca4dadad7ad9cce4, type: 2}
  - m_RefCount: 1
    m_Data: {fileID: 11400000, guid: e608708510875aa40b2cf8971633a2f6, type: 2}
  - m_RefCount: 1
    m_Data: {fileID: 11400000, guid: c4c647b2d9b4cf846a97624ca298f7ea, type: 2}
  - m_RefCount: 1
    m_Data: {fileID: 11400000, guid: 3702d9c146e22d34b8845496bb6d77cc, type: 2}
  - m_RefCount: 1
    m_Data: {fileID: 11400000, guid: 5b80915df05f6c64892bd8daa888b045, type: 2}
  - m_RefCount: 1
    m_Data: {fileID: 11400000, guid: ce80568cf98309e44a87eaa1988bc23d, type: 2}
  - m_RefCount: 1
    m_Data: {fileID: 11400000, guid: d570524ec9aef6748924a129e2ed49a7, type: 2}
  - m_RefCount: 1
    m_Data: {fileID: 11400000, guid: 9b7bac9976bc64d458fc2bd76c74a3e4, type: 2}
  - m_RefCount: 1
    m_Data: {fileID: 11400000, guid: b9b5e22a6a6f8a5499664807607099bc, type: 2}
  - m_RefCount: 1
    m_Data: {fileID: 11400000, guid: 71946b365d82978478e87c85590036b4, type: 2}
  - m_RefCount: 1
    m_Data: {fileID: 11400000, guid: 289d833e45de8ff419684f032a2eddf6, type: 2}
  - m_RefCount: 1
    m_Data: {fileID: 11400000, guid: 0a11269bab27e8e489facd2384c42d20, type: 2}
  - m_RefCount: 1
    m_Data: {fileID: 11400000, guid: 74073faa1056e044389dfe8fe3e78e42, type: 2}
  - m_RefCount: 1
    m_Data: {fileID: 11400000, guid: e690f3ae1b3ea97478cffc79797d9275, type: 2}
  - m_RefCount: 1
    m_Data: {fileID: 11400000, guid: 3533c8cce985f974382bf8332e2f2c00, type: 2}
  - m_RefCount: 1
    m_Data: {fileID: 11400000, guid: 7e9cbc1346c5b934a871e8779424c9db, type: 2}
  - m_RefCount: 1
    m_Data: {fileID: 11400000, guid: 65f353944f8d73d4eaff9e414fe30b6f, type: 2}
  - m_RefCount: 1
    m_Data: {fileID: 11400000, guid: e8ad284135311cd49bc82042c0a3b544, type: 2}
  - m_RefCount: 1
    m_Data: {fileID: 11400000, guid: 2e223a693c3d8824c946de2934cb847b, type: 2}
  - m_RefCount: 1
    m_Data: {fileID: 11400000, guid: 956f0e0df58d54d4db740e03ddb2668b, type: 2}
  - m_RefCount: 1
    m_Data: {fileID: 11400000, guid: 8cfb2632ff20f2e4aa288419bd994ab7, type: 2}
  - m_RefCount: 1
    m_Data: {fileID: 11400000, guid: df53fba606a0324408590bd17e4f66e4, type: 2}
  - m_RefCount: 1
    m_Data: {fileID: 11400000, guid: fdf23ccfb44e3224797c47b0334fdf44, type: 2}
  - m_RefCount: 1
    m_Data: {fileID: 11400000, guid: 39ed5f609e2250246a094f8e35efc622, type: 2}
  - m_RefCount: 1
    m_Data: {fileID: 11400000, guid: 4b967e0c54c8cfe45b8f44c5a0c5ae66, type: 2}
  - m_RefCount: 1
    m_Data: {fileID: 11400000, guid: f411e176104e25b4c8ea9fb65bb124a4, type: 2}
  - m_RefCount: 1
    m_Data: {fileID: 11400000, guid: fdbf342d33dc65a41b20e5fe3a4a0253, type: 2}
  - m_RefCount: 1
    m_Data: {fileID: 11400000, guid: 786da4d07cfd39841a9ae68dcdfed5b1, type: 2}
  - m_RefCount: 1
    m_Data: {fileID: 11400000, guid: 170d5cc16d8fc014c943a2ced4640804, type: 2}
  - m_RefCount: 1
    m_Data: {fileID: 11400000, guid: 427cf1f3709503f408333b09e6f8bada, type: 2}
  - m_RefCount: 1
    m_Data: {fileID: 11400000, guid: 1f2cb95635a38a1428eb86b6a8340d67, type: 2}
  - m_RefCount: 1
    m_Data: {fileID: 11400000, guid: e4d6613843720bd41ab26224c20c7fdf, type: 2}
  - m_RefCount: 1
    m_Data: {fileID: 11400000, guid: a5149d0bfd86bf745916bfd4f303284f, type: 2}
  - m_RefCount: 1
    m_Data: {fileID: 11400000, guid: 8874bad65db1e5a4896d513cbd11d53c, type: 2}
  - m_RefCount: 1
    m_Data: {fileID: 11400000, guid: 7cc1a4fc23826144b9bc9f707fedfee5, type: 2}
  - m_RefCount: 1
    m_Data: {fileID: 11400000, guid: d0749bd179806224ba33e1c6692dad3b, type: 2}
  - m_RefCount: 1
    m_Data: {fileID: 11400000, guid: ea1728f865646f940aba3556aadd45ec, type: 2}
  - m_RefCount: 1
    m_Data: {fileID: 11400000, guid: 435298b1221fc834aaa4079550e89067, type: 2}
  - m_RefCount: 1
    m_Data: {fileID: 11400000, guid: d384f4094cb74d44ebe36e714d687440, type: 2}
  m_TileSpriteArray:
  - m_RefCount: 1
    m_Data: {fileID: 5860325458425312261, guid: a0d3fbbc155eb404a87f827b40a48dfe, type: 3}
  - m_RefCount: 1
    m_Data: {fileID: -9000362276992120081, guid: a0d3fbbc155eb404a87f827b40a48dfe, type: 3}
  - m_RefCount: 1
    m_Data: {fileID: -3318589669578194417, guid: a0d3fbbc155eb404a87f827b40a48dfe, type: 3}
  - m_RefCount: 1
    m_Data: {fileID: -931493284425913039, guid: a0d3fbbc155eb404a87f827b40a48dfe, type: 3}
  - m_RefCount: 1
    m_Data: {fileID: -8474740879727053552, guid: a0d3fbbc155eb404a87f827b40a48dfe, type: 3}
  - m_RefCount: 1
    m_Data: {fileID: -3624728776038038798, guid: a0d3fbbc155eb404a87f827b40a48dfe, type: 3}
  - m_RefCount: 1
    m_Data: {fileID: 2203797919881089718, guid: a0d3fbbc155eb404a87f827b40a48dfe, type: 3}
  - m_RefCount: 1
    m_Data: {fileID: 9119029785525494671, guid: a0d3fbbc155eb404a87f827b40a48dfe, type: 3}
  - m_RefCount: 1
    m_Data: {fileID: 4023018930920339469, guid: a0d3fbbc155eb404a87f827b40a48dfe, type: 3}
  - m_RefCount: 1
    m_Data: {fileID: 814100358431600263, guid: a0d3fbbc155eb404a87f827b40a48dfe, type: 3}
  - m_RefCount: 1
    m_Data: {fileID: -6208134848360472016, guid: a0d3fbbc155eb404a87f827b40a48dfe, type: 3}
  - m_RefCount: 1
    m_Data: {fileID: -224872910991652484, guid: a0d3fbbc155eb404a87f827b40a48dfe, type: 3}
  - m_RefCount: 1
    m_Data: {fileID: 1369372634922183146, guid: a0d3fbbc155eb404a87f827b40a48dfe, type: 3}
  - m_RefCount: 1
    m_Data: {fileID: -3786115476455808955, guid: a0d3fbbc155eb404a87f827b40a48dfe, type: 3}
  - m_RefCount: 1
    m_Data: {fileID: -6941422852762540485, guid: a0d3fbbc155eb404a87f827b40a48dfe, type: 3}
  - m_RefCount: 1
    m_Data: {fileID: -3192858651156017326, guid: a0d3fbbc155eb404a87f827b40a48dfe, type: 3}
  - m_RefCount: 1
    m_Data: {fileID: 6482964590553171806, guid: a0d3fbbc155eb404a87f827b40a48dfe, type: 3}
  - m_RefCount: 1
    m_Data: {fileID: 5769662111529959046, guid: a0d3fbbc155eb404a87f827b40a48dfe, type: 3}
  - m_RefCount: 1
    m_Data: {fileID: -3590207636862898149, guid: a0d3fbbc155eb404a87f827b40a48dfe, type: 3}
  - m_RefCount: 1
    m_Data: {fileID: -6419999111262848172, guid: a0d3fbbc155eb404a87f827b40a48dfe, type: 3}
  - m_RefCount: 1
    m_Data: {fileID: 5094737752361063794, guid: a0d3fbbc155eb404a87f827b40a48dfe, type: 3}
  - m_RefCount: 1
    m_Data: {fileID: -8120323925528636241, guid: a0d3fbbc155eb404a87f827b40a48dfe, type: 3}
  - m_RefCount: 1
    m_Data: {fileID: 8938356945095094423, guid: a0d3fbbc155eb404a87f827b40a48dfe, type: 3}
  - m_RefCount: 1
    m_Data: {fileID: 2818063909598327431, guid: a0d3fbbc155eb404a87f827b40a48dfe, type: 3}
  - m_RefCount: 1
    m_Data: {fileID: -778764822399169897, guid: a0d3fbbc155eb404a87f827b40a48dfe, type: 3}
  - m_RefCount: 1
    m_Data: {fileID: 4521207776522067839, guid: a0d3fbbc155eb404a87f827b40a48dfe, type: 3}
  - m_RefCount: 1
    m_Data: {fileID: 1558959487191823921, guid: a0d3fbbc155eb404a87f827b40a48dfe, type: 3}
  - m_RefCount: 1
    m_Data: {fileID: 595508747133529673, guid: a0d3fbbc155eb404a87f827b40a48dfe, type: 3}
  - m_RefCount: 1
    m_Data: {fileID: -1474506998622769691, guid: a0d3fbbc155eb404a87f827b40a48dfe, type: 3}
  - m_RefCount: 1
    m_Data: {fileID: -7606234629451901924, guid: a0d3fbbc155eb404a87f827b40a48dfe, type: 3}
  - m_RefCount: 1
    m_Data: {fileID: -7657094741939605724, guid: a0d3fbbc155eb404a87f827b40a48dfe, type: 3}
  - m_RefCount: 1
    m_Data: {fileID: -3317108722525156635, guid: a0d3fbbc155eb404a87f827b40a48dfe, type: 3}
  - m_RefCount: 1
    m_Data: {fileID: -8355083117788888566, guid: a0d3fbbc155eb404a87f827b40a48dfe, type: 3}
  - m_RefCount: 1
    m_Data: {fileID: -5918354282546245974, guid: a0d3fbbc155eb404a87f827b40a48dfe, type: 3}
  - m_RefCount: 1
    m_Data: {fileID: -8139105514105801121, guid: a0d3fbbc155eb404a87f827b40a48dfe, type: 3}
  - m_RefCount: 1
    m_Data: {fileID: -4582401877760778594, guid: a0d3fbbc155eb404a87f827b40a48dfe, type: 3}
  - m_RefCount: 1
    m_Data: {fileID: -3211815418825281083, guid: a0d3fbbc155eb404a87f827b40a48dfe, type: 3}
  - m_RefCount: 1
    m_Data: {fileID: -1866338419035408968, guid: a0d3fbbc155eb404a87f827b40a48dfe, type: 3}
  - m_RefCount: 1
    m_Data: {fileID: -5052320489504722407, guid: a0d3fbbc155eb404a87f827b40a48dfe, type: 3}
  - m_RefCount: 1
    m_Data: {fileID: 1114646796741094055, guid: a0d3fbbc155eb404a87f827b40a48dfe, type: 3}
  - m_RefCount: 1
    m_Data: {fileID: -9048192641222686197, guid: a0d3fbbc155eb404a87f827b40a48dfe, type: 3}
  - m_RefCount: 1
    m_Data: {fileID: 5211745164843661978, guid: a0d3fbbc155eb404a87f827b40a48dfe, type: 3}
  - m_RefCount: 1
    m_Data: {fileID: -3684562326207342857, guid: a0d3fbbc155eb404a87f827b40a48dfe, type: 3}
  - m_RefCount: 1
    m_Data: {fileID: 91974681427787221, guid: a0d3fbbc155eb404a87f827b40a48dfe, type: 3}
  - m_RefCount: 1
    m_Data: {fileID: 8049239735045566497, guid: a0d3fbbc155eb404a87f827b40a48dfe, type: 3}
  - m_RefCount: 1
    m_Data: {fileID: -113996178595609863, guid: a0d3fbbc155eb404a87f827b40a48dfe, type: 3}
  - m_RefCount: 1
    m_Data: {fileID: -305168554068363993, guid: a0d3fbbc155eb404a87f827b40a48dfe, type: 3}
  - m_RefCount: 1
    m_Data: {fileID: -1745049011280948865, guid: a0d3fbbc155eb404a87f827b40a48dfe, type: 3}
  - m_RefCount: 1
    m_Data: {fileID: 6505958660565071534, guid: a0d3fbbc155eb404a87f827b40a48dfe, type: 3}
  - m_RefCount: 1
    m_Data: {fileID: 1042098557448713531, guid: a0d3fbbc155eb404a87f827b40a48dfe, type: 3}
  - m_RefCount: 1
    m_Data: {fileID: -6580451823669508612, guid: a0d3fbbc155eb404a87f827b40a48dfe, type: 3}
  - m_RefCount: 1
    m_Data: {fileID: 8501229379153569890, guid: a0d3fbbc155eb404a87f827b40a48dfe, type: 3}
  - m_RefCount: 1
    m_Data: {fileID: -9148341807223554030, guid: a0d3fbbc155eb404a87f827b40a48dfe, type: 3}
  - m_RefCount: 1
    m_Data: {fileID: -2680935109507513731, guid: a0d3fbbc155eb404a87f827b40a48dfe, type: 3}
  - m_RefCount: 1
    m_Data: {fileID: 8185415898879777628, guid: a0d3fbbc155eb404a87f827b40a48dfe, type: 3}
  - m_RefCount: 1
    m_Data: {fileID: 2869445173234102217, guid: a0d3fbbc155eb404a87f827b40a48dfe, type: 3}
  - m_RefCount: 1
    m_Data: {fileID: -5338643416407846498, guid: a0d3fbbc155eb404a87f827b40a48dfe, type: 3}
  - m_RefCount: 1
    m_Data: {fileID: 8673527630790295319, guid: a0d3fbbc155eb404a87f827b40a48dfe, type: 3}
  - m_RefCount: 1
    m_Data: {fileID: 8854592227059702305, guid: a0d3fbbc155eb404a87f827b40a48dfe, type: 3}
  - m_RefCount: 1
    m_Data: {fileID: 1421881976529914242, guid: a0d3fbbc155eb404a87f827b40a48dfe, type: 3}
  - m_RefCount: 1
    m_Data: {fileID: 252558984209222252, guid: a0d3fbbc155eb404a87f827b40a48dfe, type: 3}
  - m_RefCount: 1
    m_Data: {fileID: -2097155515530198684, guid: a0d3fbbc155eb404a87f827b40a48dfe, type: 3}
  - m_RefCount: 1
    m_Data: {fileID: -7197758672315654437, guid: a0d3fbbc155eb404a87f827b40a48dfe, type: 3}
  - m_RefCount: 1
    m_Data: {fileID: 6069686093187096410, guid: a0d3fbbc155eb404a87f827b40a48dfe, type: 3}
  - m_RefCount: 1
    m_Data: {fileID: 824959492066083578, guid: a0d3fbbc155eb404a87f827b40a48dfe, type: 3}
  - m_RefCount: 1
    m_Data: {fileID: -5892618101177633896, guid: a0d3fbbc155eb404a87f827b40a48dfe, type: 3}
  - m_RefCount: 1
    m_Data: {fileID: 8901531028996712117, guid: a0d3fbbc155eb404a87f827b40a48dfe, type: 3}
  - m_RefCount: 1
    m_Data: {fileID: 356223449659879753, guid: a0d3fbbc155eb404a87f827b40a48dfe, type: 3}
  - m_RefCount: 1
    m_Data: {fileID: 1053006213846151300, guid: a0d3fbbc155eb404a87f827b40a48dfe, type: 3}
  - m_RefCount: 1
    m_Data: {fileID: 8741352430255876377, guid: a0d3fbbc155eb404a87f827b40a48dfe, type: 3}
  - m_RefCount: 1
    m_Data: {fileID: -4695309399070934062, guid: a0d3fbbc155eb404a87f827b40a48dfe, type: 3}
  - m_RefCount: 1
    m_Data: {fileID: -4765653632507054551, guid: a0d3fbbc155eb404a87f827b40a48dfe, type: 3}
  - m_RefCount: 1
    m_Data: {fileID: 8042273296376651466, guid: a0d3fbbc155eb404a87f827b40a48dfe, type: 3}
  - m_RefCount: 1
    m_Data: {fileID: 5945357789820212794, guid: a0d3fbbc155eb404a87f827b40a48dfe, type: 3}
  - m_RefCount: 1
    m_Data: {fileID: -3497689606471582950, guid: a0d3fbbc155eb404a87f827b40a48dfe, type: 3}
  - m_RefCount: 1
    m_Data: {fileID: -4819012328685627586, guid: a0d3fbbc155eb404a87f827b40a48dfe, type: 3}
  - m_RefCount: 1
    m_Data: {fileID: -408396846168208039, guid: a0d3fbbc155eb404a87f827b40a48dfe, type: 3}
  - m_RefCount: 1
    m_Data: {fileID: -7781352479309441268, guid: a0d3fbbc155eb404a87f827b40a48dfe, type: 3}
  - m_RefCount: 1
    m_Data: {fileID: -818659787113659478, guid: a0d3fbbc155eb404a87f827b40a48dfe, type: 3}
  - m_RefCount: 1
    m_Data: {fileID: 6047853239188639983, guid: a0d3fbbc155eb404a87f827b40a48dfe, type: 3}
  - m_RefCount: 1
    m_Data: {fileID: -4388531849041413033, guid: a0d3fbbc155eb404a87f827b40a48dfe, type: 3}
  - m_RefCount: 1
    m_Data: {fileID: 1339269231420215825, guid: a0d3fbbc155eb404a87f827b40a48dfe, type: 3}
  - m_RefCount: 1
    m_Data: {fileID: -8269629686364622043, guid: a0d3fbbc155eb404a87f827b40a48dfe, type: 3}
  - m_RefCount: 1
    m_Data: {fileID: 6801152492180024973, guid: a0d3fbbc155eb404a87f827b40a48dfe, type: 3}
  - m_RefCount: 1
    m_Data: {fileID: 6683501223357894596, guid: a0d3fbbc155eb404a87f827b40a48dfe, type: 3}
  - m_RefCount: 1
    m_Data: {fileID: 7325720009749220995, guid: a0d3fbbc155eb404a87f827b40a48dfe, type: 3}
  - m_RefCount: 1
    m_Data: {fileID: -1034604436700536505, guid: a0d3fbbc155eb404a87f827b40a48dfe, type: 3}
  - m_RefCount: 1
    m_Data: {fileID: -589316354031001511, guid: a0d3fbbc155eb404a87f827b40a48dfe, type: 3}
  - m_RefCount: 1
    m_Data: {fileID: 5719594033305679040, guid: a0d3fbbc155eb404a87f827b40a48dfe, type: 3}
  - m_RefCount: 1
    m_Data: {fileID: 3136550281646277714, guid: a0d3fbbc155eb404a87f827b40a48dfe, type: 3}
  - m_RefCount: 1
    m_Data: {fileID: 5550302956442217801, guid: a0d3fbbc155eb404a87f827b40a48dfe, type: 3}
  - m_RefCount: 1
    m_Data: {fileID: -357649465742773655, guid: a0d3fbbc155eb404a87f827b40a48dfe, type: 3}
  - m_RefCount: 1
    m_Data: {fileID: -3679828817949995438, guid: a0d3fbbc155eb404a87f827b40a48dfe, type: 3}
  - m_RefCount: 1
    m_Data: {fileID: -7443312225144014202, guid: a0d3fbbc155eb404a87f827b40a48dfe, type: 3}
  - m_RefCount: 1
    m_Data: {fileID: -1808025220374361088, guid: a0d3fbbc155eb404a87f827b40a48dfe, type: 3}
  - m_RefCount: 1
    m_Data: {fileID: 2829099832771946518, guid: a0d3fbbc155eb404a87f827b40a48dfe, type: 3}
  - m_RefCount: 1
    m_Data: {fileID: -4812822056404770797, guid: a0d3fbbc155eb404a87f827b40a48dfe, type: 3}
  - m_RefCount: 1
    m_Data: {fileID: 5877983500951366135, guid: a0d3fbbc155eb404a87f827b40a48dfe, type: 3}
  - m_RefCount: 1
    m_Data: {fileID: -4218565217482104407, guid: a0d3fbbc155eb404a87f827b40a48dfe, type: 3}
  - m_RefCount: 1
    m_Data: {fileID: -6821306102546672784, guid: a0d3fbbc155eb404a87f827b40a48dfe, type: 3}
  - m_RefCount: 1
    m_Data: {fileID: -8258698053525156362, guid: a0d3fbbc155eb404a87f827b40a48dfe, type: 3}
  - m_RefCount: 1
    m_Data: {fileID: -2978260595890351725, guid: a0d3fbbc155eb404a87f827b40a48dfe, type: 3}
  - m_RefCount: 1
    m_Data: {fileID: 3168918426942389004, guid: a0d3fbbc155eb404a87f827b40a48dfe, type: 3}
  m_TileMatrixArray:
  - m_RefCount: 103
    m_Data:
      e00: 1
      e01: 0
      e02: 0
      e03: 0
      e10: 0
      e11: 1
      e12: 0
      e13: 0
      e20: 0
      e21: 0
      e22: 1
      e23: 0
      e30: 0
      e31: 0
      e32: 0
      e33: 1
  m_TileColorArray:
  - m_RefCount: 103
    m_Data: {r: 1, g: 1, b: 1, a: 1}
  m_TileObjectToInstantiateArray: []
  m_AnimationFrameRate: 1
  m_Color: {r: 1, g: 1, b: 1, a: 1}
  m_Origin: {x: 0, y: -10, z: 0}
  m_Size: {x: 10, y: 11, z: 1}
  m_TileAnchor: {x: 0.5, y: 0.5, z: 0}
  m_TileOrientation: 0
  m_TileOrientationMatrix:
    e00: 1
    e01: 0
    e02: 0
    e03: 0
    e10: 0
    e11: 1
    e12: 0
    e13: 0
    e20: 0
    e21: 0
    e22: 1
    e23: 0
    e30: 0
    e31: 0
    e32: 0
    e33: 1
--- !u!483693784 &7146476609899147545
TilemapRenderer:
  m_ObjectHideFlags: 0
  m_CorrespondingSourceObject: {fileID: 0}
  m_PrefabInstance: {fileID: 0}
  m_PrefabAsset: {fileID: 0}
  m_GameObject: {fileID: 1502930452203607466}
  m_Enabled: 1
  m_CastShadows: 0
  m_ReceiveShadows: 0
  m_DynamicOccludee: 0
  m_StaticShadowCaster: 0
  m_MotionVectors: 1
  m_LightProbeUsage: 0
  m_ReflectionProbeUsage: 0
  m_RayTracingMode: 0
  m_RayTraceProcedural: 0
  m_RenderingLayerMask: 1
  m_RendererPriority: 0
  m_Materials:
  - {fileID: 10754, guid: 0000000000000000f000000000000000, type: 0}
  m_StaticBatchInfo:
    firstSubMesh: 0
    subMeshCount: 0
  m_StaticBatchRoot: {fileID: 0}
  m_ProbeAnchor: {fileID: 0}
  m_LightProbeVolumeOverride: {fileID: 0}
  m_ScaleInLightmap: 1
  m_ReceiveGI: 1
  m_PreserveUVs: 0
  m_IgnoreNormalsForChartDetection: 0
  m_ImportantGI: 0
  m_StitchLightmapSeams: 1
  m_SelectedEditorRenderState: 0
  m_MinimumChartSize: 4
  m_AutoUVMaxDistance: 0.5
  m_AutoUVMaxAngle: 89
  m_LightmapParameters: {fileID: 0}
  m_SortingLayerID: 0
  m_SortingLayer: 0
  m_SortingOrder: 0
  m_ChunkSize: {x: 32, y: 32, z: 32}
  m_ChunkCullingBounds: {x: 0, y: 0, z: 0}
  m_MaxChunkCount: 16
  m_MaxFrameAge: 16
  m_SortOrder: 0
  m_Mode: 0
  m_DetectChunkCullingBounds: 0
  m_MaskInteraction: 0
--- !u!1 &3834979071016887034
GameObject:
  m_ObjectHideFlags: 0
  m_CorrespondingSourceObject: {fileID: 0}
  m_PrefabInstance: {fileID: 0}
  m_PrefabAsset: {fileID: 0}
  serializedVersion: 6
  m_Component:
  - component: {fileID: 8022508924050800881}
  - component: {fileID: 8075864836046984077}
  m_Layer: 0
  m_Name: DungeonDecorations
  m_TagString: Untagged
  m_Icon: {fileID: 0}
  m_NavMeshLayer: 0
  m_StaticEditorFlags: 0
  m_IsActive: 1
--- !u!4 &8022508924050800881
Transform:
  m_ObjectHideFlags: 0
  m_CorrespondingSourceObject: {fileID: 0}
  m_PrefabInstance: {fileID: 0}
  m_PrefabAsset: {fileID: 0}
  m_GameObject: {fileID: 3834979071016887034}
  m_LocalRotation: {x: 0, y: 0, z: 0, w: 1}
  m_LocalPosition: {x: 0, y: 0, z: 0}
  m_LocalScale: {x: 1, y: 1, z: 1}
  m_ConstrainProportionsScale: 0
  m_Children:
  - {fileID: 7254860704764804156}
  m_Father: {fileID: 0}
  m_RootOrder: 0
  m_LocalEulerAnglesHint: {x: 0, y: 0, z: 0}
--- !u!156049354 &8075864836046984077
Grid:
  m_ObjectHideFlags: 0
  m_CorrespondingSourceObject: {fileID: 0}
  m_PrefabInstance: {fileID: 0}
  m_PrefabAsset: {fileID: 0}
  m_GameObject: {fileID: 3834979071016887034}
  m_Enabled: 1
  m_CellSize: {x: 1, y: 1, z: 0}
  m_CellGap: {x: 0, y: 0, z: 0}
  m_CellLayout: 0
  m_CellSwizzle: 0
--- !u!114 &1239798691769471758
MonoBehaviour:
  m_ObjectHideFlags: 0
  m_CorrespondingSourceObject: {fileID: 0}
  m_PrefabInstance: {fileID: 0}
  m_PrefabAsset: {fileID: 0}
  m_GameObject: {fileID: 0}
  m_Enabled: 1
  m_EditorHideFlags: 0
  m_Script: {fileID: 12395, guid: 0000000000000000e000000000000000, type: 0}
  m_Name: Palette Settings
  m_EditorClassIdentifier: 
  cellSizing: 0
  m_TransparencySortMode: 0
  m_TransparencySortAxis: {x: 0, y: 0, z: 1}
