%YAML 1.1
%TAG !u! tag:unity3d.com,2011:
--- !u!114 &11400000
MonoBehaviour:
  m_ObjectHideFlags: 0
  m_CorrespondingSourceObject: {fileID: 0}
  m_PrefabInstance: {fileID: 0}
  m_PrefabAsset: {fileID: 0}
  m_GameObject: {fileID: 0}
  m_Enabled: 1
  m_EditorHideFlags: 0
  m_Script: {fileID: 11500000, guid: 299dab67d0516394ebb3e1c5fb1f8d95, type: 3}
  m_Name: PropSO_Column
  m_EditorClassIdentifier: 
  PropSprite: {fileID: -3318589669578194417, guid: a0d3fbbc155eb404a87f827b40a48dfe, type: 3}
  PropSize: {x: 1, y: 1}
  Corner: 1
  NearWallUP: 0
  NearWallDown: 0
  NearWallRight: 0
  NearWallLeft: 0
  Inner: 0
  LastRoom: 0
  Effector: 0
  ChestRoom: 1
  Light: 1
  PlacementQuantityMin: 1
  PlacementQuantityMax: 1
  PlaceAsGroup: 0
  GroupMinCount: 1
  GroupMaxCount: 1
